,0,1
0,,"Дыбовский Бенедикт Иванович (1833-1930 гг.) член-корреспондент АН СССР, польский ученый-биолог, основоположник современного системного байкаловедения."
1,,"Дриженко Федор Кириллович (1858-1922 гг.) Моряк-ученый. генерал Корпуса гидрографов, автор первой ""Лоции"" и первого подробного ""Атласа Байкала"""
2,,"Обручев Владимир Афанасьевич (1863-1956 гг.) академик, выдающийся ученый, геолог и географ. Исследовал геологическое строение Сибири, Байкала (открыл ""Обручевский сброс"")"
3,,"Сварчевский Борис Александрович (1872-1930 гг.) д.б.н., профессор ИГУ, директор Биолого-географического научно-исследовательского института ИГУ"
4,,"Берг Лев Семенович (1876-1950 гг.) академик, географ, ихтиолог. Разработал одну из ведущих концепций происхождения Фауны Байкала."
5,,"Дорогостайский Виталий Чеславович (1879-1938 гг.) Выдающийся ученый, биолог, географ, известный исследователь Байкала, Ангары и горных озер Хамар-Дабана. Создатель первой биологической станции на Байкале."
6,,"Верещагин Глеб Юрьевич (1889-1944 гг.) д.г.н., профессор, выдающийся озеровед, основатель и первый директор Байкальской лимнологической станции."
7,,"Кожов Михаил Михайлович (1890-1968 гг.) д.б.н., профессор -байкаловед, организатор и бессменный руководитель Научно-исследовательского биолого-географического института при ИГУ, биостанции в Больших Котах, вырастивший не одно поколение иркутских ученых."
8,,"Яснитский Владислав Николаевич (1894-1945 гг.) Профессор, первый декан биофака ИГУ (1932-1945 гг.). Исследовал планктон озера Байкал.>"
9,,"Глазунов Иван Владимирович (1902-1968 гг.) Старейший научный сотрудник Лимнологического института, известный гидрохимик."
10,,"Москаленко Борис Константинович (1902-1973 гг.) д.б.н., заведующий лабораторией ихтиологии в 60-70-е годы. Исследовал биологическую продуктивность озера Байкал, в том числе его рыбные ресурсы."
11,,"Скабичевский Александр Павлович (1904-1991 гг.) д.б.н., известный альголог, занимался изучением фитопланктона Баргузинского залива, вел исследования на Байкальской биологической станции в Больших Котах."
12,,"Сокольников Владимир Михайлович (1904-1971 гг.) к.т.н., первый заведующий лабораторией гидрологии гидрофизики (1959-1971 гг.). Крупный специалист по ледово-термическому режиму."
13,,"Талиев Дмитрий Николаевич (1908-1952 гг.) Ихтиолог с мировым именем, занимался исследованием бычков-подкаменщиков, ихтиофауны Байкала. Директор Байкальской лимнологической станции (1944-1948 гг.)."
14,,"Ладейщиков Николай Павлович (1908-1998 гг.). к.г.н., заведующий лабораторией метеорологии и климатологии. (1966-1987 гг.) Создатель музея байкаловедения."
15,,"Флоренсов Николай Александрович (1909-1986 гг.). Член-корреспондент РАН, доктор геоло- минералогических наук, заместитель директора ЛИН СО РАН (1973-1980 гг.), разработал представления о Байкальском рифте и формировании озерных котловин байкальского типа."
16,,"Афанасьев Александр Никитич (1911-1977 гг.) д.г.н., заведующий лабораторией гидрологии и гидрофизики (1971-1977 гг.). Организовал изучение водных ресурсов бассейна оз. Байкал и р. Ангары."
17,,"Герберт Генрихович Мартинсон (1911-1997 гг.) Палеонтолог, д.г-м.н., профессор. В 1959 г. организовал и возглавил первую в Союзе лабораторию палеолимнологии в Лимнологическом институте СО АН СССР"
18,,"Линевич Анна Андреевна (1913 - 2003 гг.) д.б.н., профессор. Заведовала лабораторией гидробиологии. Исследователь фауны хирономид оз. Байкал.Создала иркутскую школу хирономидологов."
19,,"Вотинцев Константин Константинович (1915-1992 гг.) д.г.н., заведующий отделом гидрохимии, известный лимнолог, байкаловед, внес большой вклад в изучение гидрохимии Байкала."
20,,"Егоров Александр Георгиевич (1916-1994 гг.) д.б.н., профессор, исследовал биологию байкальского осетра, проблемы прудового и озерного рыбоводства в Восточной Сибири."
21,,"Галазий Григорий Иванович (1922-2000 гг.) академик РАН, первый директор Лимнологического института. Известный лимнолог и геоботаник."
22,,"Верболов Владимир Ильич (1923 -1997). к.г.н., заведующий лабораторией гидрологии и гидрофизики(1977-1989 гг.). Провел многолетний цикл исследований течений в разных глубинных зонах Байкала, его водообмена и теплового режима."
23,,"Кожова Ольга Михайловна (1931-2000 гг.) д.б.н., профессор. Выдающийся гидробиолог и организатор науки."
24,,"Пастухов Владимир Дмитриевич (1934- 1999 гг.) д.б.н., лимнолог, известный исследователь байкальской нерпы."
25,,"Черепанов Вадим Васильевич (1938-1990 гг.) к.б.н., гидробиолог, занимался изучением бентосных сообществ, в том числе в районе БЦБК. Ученый секретарь Лимнологического института (1972-1980 гг.)."
26,,"Скрябин Анатолий Георгиевич (1938 -2000 гг.) д.б.н., ихтиолог, занимался изучением сиговых рыб на Байкале, руководил исследованиями Ангарских водохранилищ. Ученый секретарь Лимнологического института (1966-1971 гг.)."
