,0,1
0,,
1,command and control,3.1
2,command and control system,3.2
3,cooperation,3.3
4,coordination,3.4
5,emergency management,3.5
6,incident command,3.6
7,incident preparedness,3.7
8,incident response,3.8
9,information,3.9
10,operational information,3.1
11,organization,3.11
