,0
0,А1 Выработка согласованных условий деятельности
1,А1.1 Стратегическое планирование
2,А1.1.1 Анализ внешнего окружения
3,А1.1.1.1 Анализ рыночных сегментов А1.1.1.2 Анализ конкурентов  А1.1.1.3 Анализ технологий  А1.1.1.4 Анализ поставщиков  А1.1.1.5 Анализ экономической ситуации  А1.1.1.6 Анализ законодательства и регулирования
4,А1.1.2 Анализ внутренней среды
5,А1.1.2.1 Анализ возможностей организации  А1.1.2.2 Анализ операционной модели  А1.1.2.3 Анализ бизнес-процессов А1.1.2.4 Анализ финансово-хозяйственной деятельности  А1.1.2.5 Анализ и прогнозирование измерителей успеха  А1.1.2.6 Анализ способностей и компетенций  А1.1.2.7 Анализ стратегических компетенций
6,А1.1.3 Формулирование предположений
7,"А1.1.3.1 Формулирование предположений по рыночным сегментам  А1.1.3.2 Формулирование предположений по конкуренции и конкурентам  А1.1.3.3 Формулирование иных важных предположений (технологии, социальные факторы, экономические факторы, политические факторы)  А1.1.3.4 Определение очевидных возможностей  А1.1.3.5 Анализ и выбор очевидных возможностей А1.1.3.6 Анализ очевидных угроз  А1.1.3.7 Определение отраслевых сценариев и профиля победителя"
8,А1.1.4 Определение Стратегии развития
9,"А1.1.4.1 Проведение стратегической оценки  А1.1.4.2 Определение стратегических фокуса, компетенций и преимуществ  А1.1.4.3 Оценка рисков развития и способов управления рисками А1.1.4.4 Формулирование органических стратегий  А1.1.4.5 Определение притязаний собственников  А1.1.4.6 Формулирование стратегий прорыва и стратегических инициатив"
10,"А1.1.5 Определение Миссии, Целей и Задач на стратегическом горизонте"
11,А1.1.5.1 Разработка Заявления о миссии компании А1.1.5.2 Формулирование стратегических целей  А1.1.5.3 Формулирование комплекса задач на стратегическом горизонте А1.1.5.4 Формулирование / декомпозиция задач на среднесрочный горизонт (год)
12,А1.1.6 Планирование развития
13,А1.1.6.1 Декомпозиция задач / ожидаемых результатов деятельности  А1.1.6.2 Формулирование действий / проектов развития (стратегический горизонт) А1.1.6.3 Разработка годовых планов развития (среднесрочный горизонт)  А1.1.6.4 Актуализация регламентно-нормативной базы компании  А1.1.6.5 Разработка инвестиционных бюджетов
14,А1.1.7 Мониторинг выполнения планов развития
15,А1.1.7.1 Планирование мероприятий мониторинга  А1.1.7.2 Проведение мероприятий мониторинга  А1.1.7.3 Выработка корректирующих воздействий  А1.1.7.4 Реализация корректирующих воздействий
