,0,1,2,3,4,5,6
0,,,,,,,
1,Организации  Персоналии  Книги  Статьи  Диссертации  Глоссарий  Учебные программы  Интернет-программы  Интернет-ресурсы  Компьютерные программы  Журнальный зал  Образовательные стандарты  Словари  расширенный поиск,,Организации  Персоналии  Книги  Статьи  Диссертации  Глоссарий  Учебные программы  Интернет-программы  Интернет-ресурсы  Компьютерные программы  Журнальный зал  Образовательные стандарты  Словари,Организации  Персоналии  Книги  Статьи  Диссертации  Глоссарий,Учебные программы  Интернет-программы  Интернет-ресурсы  Компьютерные программы,Журнальный зал  Образовательные стандарты  Словари,расширенный поиск
2,,Организации  Персоналии  Книги  Статьи  Диссертации  Глоссарий  Учебные программы  Интернет-программы  Интернет-ресурсы  Компьютерные программы  Журнальный зал  Образовательные стандарты  Словари,Организации  Персоналии  Книги  Статьи  Диссертации  Глоссарий,Учебные программы  Интернет-программы  Интернет-ресурсы  Компьютерные программы,Журнальный зал  Образовательные стандарты  Словари,расширенный поиск,
3,Организации  Персоналии  Книги  Статьи  Диссертации  Глоссарий,Учебные программы  Интернет-программы  Интернет-ресурсы  Компьютерные программы,Журнальный зал  Образовательные стандарты  Словари,,,,
