,0,1,2
0,Раздел/статья,Выводы,
1,Увеличение числового показателя,Уменьшение числового показателя,
2,Внеоборотные активы,"По всей вероятности, это свидетельствует о том, что компания приобрела имущество или вложила средства в строительство. Если какая-то из статей данного раздела заметно увеличивается, следует немедленно обратить внимание на статьи обязательств и определить, за счет каких средств фирма произвела вложения. Это могут быть собственные или заемные, долгосрочные или краткосрочные средства.","Такая тенденция может свидетельствовать как о продаже основных средств, так и о начислении амортизации, то есть о физическом износе/устаревании основных фондов производства."
3,"Если внеоборотные активы включают в себя незавершенное строительство, следует понимать, что данное имущество сохранит свою ценность, только если компания и далее будет вкладывать деньги в строительство. В случае заморозок инвестиций из-за кризиса реальная цена данных активов окажется существенно ниже балансовой.",,
4,Оборотные активы. Запасы,Большой объем и ежегодное увеличение запасов может говорить о затоваривании.,"Если запасы стабильно уменьшаются, то, скорее всего, компания снизила деловую активность, то есть свернула деятельность, или же у нее недостаточно оборотных средств для того, чтобы закупать необходимый объем запасов."
5,"Во втором разделе баланса следует уделить внимание такой статье, как НДС по приобретенным ценностям. При наличии большой суммы данного налога, которая продолжает расти, можно говорить о том, что у предприятия есть определенные причины снизить налоговые платежи (непредъявление НДС к возмещению из бюджета). Такая ситуация может быть вызвана тем, что документооборот на предприятии организован неудовлетворительно, качество налогового учета можно назвать низким, или же фирма закупает товар (продукцию) по завышенной стоимости или у ненадежных поставщиков. Если дела обстоят именно так, можно с уверенностью говорить о высоких налоговых рисках на предприятии.",,
6,Дебиторская задолженность.  Эта статья баланса в идеале должна быть рассмотрена вместе с показателем выручки из формы 2.,"Если дебиторская задолженность увеличивается в связи с тем, что растут продажи, можно точно сказать: выручка компании стала повышаться благодаря изменению кредитной политики организации. То есть компания увеличила срок предоставления товарного кредита.  Если же при увеличении дебиторской задолженности выручка снижается, это может свидетельствовать о том, что изменение кредитной политики в благоприятную для клиентов сторону не помогло фирме удержать своих покупателей. То есть ее операционные риски повысились.","Если дебиторская задолженность уменьшается, а выручка увеличивается, напрашивается следующий вывод: клиенты фирмы стали раньше оплачивать свои счета, то есть количество дней отсрочки сократилось или же для расчетов по части товаров начала действовать предоплата (и покупатели восприняли это как изменение в кредитной политике компании).  Если же выручка организации уменьшилась, то, следовательно, снизилась и клиентская задолженность."
7,"Дебиторская задолженность также может состоять из выплаченных авансов, связанных со строительством или покупкой основных средств. То есть в дальнейшем такая задолженность должна преобразоваться или в основные средства, или в неоконченное строительство, но никак не в деньги.",,
8,Денежные средства.,"Как повышение, так и снижение числового показателя по этой статье не дает нам возможности прийти к какому-либо значимому выводу.",
9,"Перейдем ко второму разделу нашего баланса. Самая внушительная сумма отводится на запасы – они выросли в цене. Поскольку мы не можем точно сказать, положительная или отрицательная динамика здесь прослеживается, следует далее проанализировать показатели по данной статье, то есть провести вертикальный анализ и расчет коэффициента оборачиваемости. Сумма налога на добавленную стоимость, предъявленного к вычету, к концу года составила свыше 17 млн рублей. В сравнении с прошлым годом она выросла, что означает наличие на предприятии налоговых рисков. Размер дебиторской задолженности повысился на фоне сокращения выручки. Необходимо проанализировать показатели по данной статье.",,
10,Капитал и резервы. Уставный капитал,"Обычно изменения по данной статье случаются, только если происходила перерегистрация организации, обусловленная повышением/снижением уставного капитала в силу тех или иных причин (включая смену собственника).",
11,Нераспределенная прибыль (непокрытый убыток),"На этом этапе анализа рассматривается наличие суммы по данной статье. Если есть убыток, статью относят к проблемной. Чтобы выполнить более подробный анализ, показателей, отраженных в балансе, мало.",
12,Кредиты и займы,"Основываясь на балансе, мы можем судить о том, есть ли у компании краткосрочные или долгосрочные займы, повысился их размер или уменьшился. Понять, обоснованно ли привлекать в конкретном случае кредитные ресурсы и насколько они эффективны, на этом этапе нельзя из-за отсутствия достаточного объема сведений.",
13,Кредиторская задолженность. Анализируем по видам задолженности.,"Если кредиторская задолженность перед поставщиками возросла, это может говорить как о задержке платежей, то есть о том, что компания нарушила свои платежные обязательства, так и о наличии договоренностей по увеличению отсрочки при условии прежних объемов закупок, своевременного внесения оплаты, хороших взаимоотношений. Если возросла сумма задолженности по налогам, то, скорее всего, налоговые риски для организации увеличились.","Снижение суммы кредиторской задолженности может говорить или об ужесточении кредитной политики поставщиков, или о досрочном исполнении фирмой своих платежных обязательств. Если снижается задолженность по налоговым платежам, можно говорить как о своевременности исполнения налоговых обязательств, так и о меньшем начислении налогов в результате понижения деловой активности."
