,0,1
0,Этапы принятия решений,Содержание этапов (что необходимо делать?)
1,1. Определение проблемы,"Определить тип решаемой проблемы (проблема функционирования или развития организации). Определить симптомы проблемы. Собрать информацию о факторах, влияющих на эффективность организации. Установить причины возникновения проблемы. Выявить управляемые факторы, которые могут повлиять на решение проблемы"
2,2. Постановка цели принятия решения,"Сформулировать цель управления, достижение которой решает проблему. Разделить цель управления на подцели и построить «дерево целей». Сформулировать цели принятия решений. Определить критерии выбора альтернатив"
3,"3. Анализ факторов, влияющих на принятие решения","Определить перечень всех факторов (переменных), влияющих на принятие решения. Собрать информацию о значениях этих факторов и выявить среди них неопределенные факторы. Установить природу, источники возникновения и диапазоны возможных значений неопределенных факторов. Разработать модели влияния неопределенных факторов на организацию"
4,4. Разработка альтернатив,"Сформировать исходное множество альтернатив (идей, гипотез, предположений), направленных на решение проблемы. Определить множество допустимых решений. Сократить число допустимых решений путем исключения «заведомо непригодных» альтернатив. Определить множество эффективных решений (если это возможно)"
5,5. Оценивание альтернатив,Определить состав атрибутов (показателей эффективности или качества) для оценивания альтернатив. Определить тип шкалы для измерения каждого показателя. Определить количественные и качественные показатели. Тщательно продумать все возможные последствия каждой альтернативы и оценить их с помощью модели процесса реализации решений
6,6. Выбор альтернативы,Определить тип задачи принятия решения. Выполнить постановку задачи и разработать методы ее решения. Сравнить все альтернативы между собой с учетом значений всех атрибутов и влияния неопределенных факторов. 4. Определить оптимальное или удовлетворительное решение
7,7. Реализация решения,"1. Согласовать решение с исполнителями и руководителями других организаций (или подразделений), заинтересованных в решении проблемы. 2. Утвердить принятое решение у вышестоящего руководителя (владельца проблемы). 3. Разработать план реализации решения. 4. Сформулировать задачи исполнителям, распределить полномочия, ответственность и организовать взаимодействие между ними. 5. Мотивировать исполнителей на выполнение поставленных задач. 6. Осуществлять текущий контроль процесса реализации решения"
8,8. Контроль результатов,"Измерить фактические результаты (значения атрибутов) принятого решения. Передать информацию о результатах руководителю, отвечающему за решение проблемы (если это необходимо). Сравнить фактические и требуемые результаты между собой с учетом масштаба допустимых отклонений. Оценить реальную эффективность деятельности организации"
