,0
0,Машинное обучение иdata mining
1,Задачи Задача классификации Обучение без учителя Обучение с частичным привлечением учителя Регрессионный анализ AutoML Ассоциативные правила Выделение признаков Обучение признакам Обучение ранжированию Грамматический вывод Онлайновое обучение
2,"Обучение с учителем Метод k-ближайших соседей Наивный байесовский классификатор Дерево решений Метод опорных векторов Линейная регрессия Логистическая регрессия Перцептрон Ансамбли моделей (Бэггинг, Бустинг, Random forest) Метод релевантных векторов"
3,Кластерный анализ Метод k-средних Метод нечёткой кластеризации Иерархическая кластеризация EM-алгоритм BIRCH CURE DBSCAN OPTICS Mean-shift
4,Снижение размерности Факторный анализ Метод главных компонент CCA ICA LDA Неотрицательное матричное разложение t-SNE
5,"Структурное прогнозирование Графовая вероятностная модель (Байесовская сеть, Скрытая марковская модель, CRF)"
6,Выявление аномалий Метод k-ближайших соседей Локальный уровень выброса
7,Графовые вероятностные модели Байесовская сеть Марковская сеть Скрытая марковская модель
8,"Искусственные нейронные сети Ограниченная машина Больцмана Самоорганизующаяся карта Функция активации (Сигмоида, Softmax, Радиально-базисная функция) Метод обратного распространения ошибки Глубокое обучение Многослойный перцептрон Рекуррентная нейронная сеть (Долгая краткосрочная память, Управляемый рекуррентный блок) Свёрточная нейронная сеть (U-Net) Автокодировщик"
9,Обучение с подкреплением Марковский процесс Уравнение Беллмана Жадный алгоритм Q-learning SARSA Temporal difference (TD)
10,Теория Теория Вапника — Червоненкиса Дилемма смещения–дисперсии Теория вычислительного обучения Минимизация эмпирического риска Оккамово обучение PAC learning Статистическая теория обучения
11,Журналы и конференции NIPS ICML ML JMLR ArXiv:cs.LG
12,Глоссарий Глоссарий по машинному обучению
13,Статьи по теме List of datasets for machine-learning research Outline of machine learning
