,Регион/ рейтинг,Страна,Место в глобальном рейтинге ГИИ 2017 г.
0,Северная Америка,,
1,1,Соединенные Штаты Америки,4.0
2,2,Канада,18.0
3,Страны Африки к югу от Сахары,,
4,1,Южная Африка,57.0
5,2,Маврикий,64.0
6,3,Кения,80.0
7,Латинская Америка и Карибский бассейн,,
8,1,Чили,46.0
9,2,Коста-Рика,53.0
10,3,Мексика,58.0
11,Центральная и Южная Азия,,
12,1,Индия,60.0
13,2,"Иран, Исламская Республика",75.0
14,3,Казахстан,78.0
15,Северная Африка и Западная Азия,,
16,1,Израиль,17.0
17,2,Кипр,30.0
18,3,Объединенные Арабские Эмираты,35.0
19,"Юго-Восточная Азия, Восточная Азия и Океания",,
20,1,Сингапур,7.0
21,2,Республика Корея,11.0
22,3,Япония,14.0
23,Европа,,
24,1,Швейцария,1.0
25,2,Швеция,2.0
26,3,Нидерланды,3.0
