,0,1,2,3,4,5,6,7,8,9,10
0,Р/с №,Нысаналы индикатор,Өлшем бірлігі,Ақпарат көздері,Орындалуына жауаптылар,2014 (факт),2015 (бағалау),2016,2017,2018,2019
1,1,2,3,4,5,6,7,8,9,10,11
2,1,Халықтың медициналық көмек сапасына қанағаттануының деңгейі,%,Халыққа жүргізілген әлеуметтік сауалдың деректері (жетілдірілген әдістеме бойынша),ДСӘДМ,-,-,40,42,44,46
