,Unnamed: 0,Рекомендации к содержанию ТЗ,"Информация, необходимая для проведения  ОВОС"
0,,Рекомендации к содержанию ТЗ,"Информация, необходимая для проведения  ОВОС"
1,1.0,Введение,· название ИП;  · название предприятия-заявителя ИП;  · цели подготовки ТЗ
2,2.0,Информация общего  характера,"· категория ИП;  · краткое описание основных компонентов ИП;  · цели и необходимость осуществления ИП;  · краткая предыстория ИП (секторальные планы  развития, региональные планы по окружающей среде и т.д.)"
3,3.0,Поставленные задачи,"· задачи проведения ОВОС;  · общий круг анализируемой информации,  сведений и проблем;  · сроки проведения ОВОС, увязанные со сроками  подготовки обосновывающей документации по ИП."
4,4.0,"Требования,  предъявляемые к ОВОС","· правила, нормативы, постановления,  инструкции, которые регламентируют порядок проведения ОВОС, принятые как на  федеральном уровне, так и региональные и отраслевые;  · перечень информации, необходимой для  исследований"
5,5.0,Обследуемая территория,"· площадь территории, для которой проводится  ОВОС (площадь административного района, водосбора, границы воздушного  бассейна, места обитания животных, нерестилища и т.д.)  · описание состояния окружающей среды этой  территории"
6,6.0,Круг анализируемых  сведений и проблем,"· описание и характеристика источников и  видов воздействия, которые будут ликвидированы в случае реализации ИП;  · анализ альтернатив, которые могут повлиять  на решения по ИП (размещенческие, инженерные, технические);  · оценка источников и видов воздействия,  возникающих в случае реализации ИП по выбранной альтернативе;  · описание мер, направленных на ликвидацию  или уменьшение воздействия;  · описание экологических (а также  экономических и социальных) последствий реализации ИП по выбранной  альтернативе · проведение общественных слушаний"
7,7.0,Требования к документации,"· проект Программы изысканий и научных  исследований;  · Заявление о воздействии на окружающую  среду;  Проект Перечня  экологических условий для проектирования, строительства и эксплуатации ИП"
