,0,1,2,3,4,5,6,7,8,9,10
0,Виды  животных (продукции),"Затраты на 1 среднегодовую голову, руб.","Выход продукции на 1 голову, ц","Себестоимость 1 ц продукции, руб.","Отклонение в расчете на 1 ц, руб.",,,,,,
1,2009 г.,2010 г.,2009 г.,2010 г.,2009 г.,условная,2010 г.,всего,в т.ч. за счет изменения,,
2,затрат,про-дук-тив-ности,,,,,,,,,
3,Коровы  (молоко),235563,301746,4052,362,5813,7447,8336,2523,1634,889
4,КРС на откорме (прирост живой массы),84803,53069,203,12,41775,26142,44224,2449,-15633,18082
5,Свиньи  на откорме  (прирост  живой массы),-,60891,-,04,-,-,152228,-,-,-
