,0,1,2,3
0,Влияние собственного капитала,Влияние активов,,
1,Влияние фактора,Расчет влияния собственного капитала,Влияние фактора,Расчет влияния активов
2,DКУК,Кусл1- К0,DКВНА,Кусл7- Кусл6
3,DКСА,Кусл2- Кусл1,,
4,DКПА,Кусл3- Кусл2,,
5,DКДК,Кусл4- Кусл3,DКОА,К1- Кусл7
6,DКРК,Кусл5- Кусл4,,
7,DКНП,Кусл6- Кусл5,,
8,Общее влияние факторов,DКобщ=DКУК+DКСА+DКПА+DКДК+DКРК+DКНП +DКВНА+DКОА,,
