,0,1
0,Признаки классификации,Управленческие решения
1,По масштабам воздействия,Общие Частные
2,По времени действия,Стратегические Оперативные
3,По прогнозируемым свойствам,С определенным результатом С вероятным исходом
4,По методам переработки информации,Алгоритмические Эвристические
5,По числу критериев,Однокритериальные Многокритериальные
6,По направлению воздействия,Внутренние Внешние
7,По глубине воздействия,Одноуровневые Многоуровневые
8,По способу принятия,Индивидуальные Коллективные
9,По способу фиксации,Письменные Устные
