,0,1,2,3,4,5,6
0,,1961-1965,1966  -1970,1971  - 1975,1976  – 1980,1981  - 1985,1986
1,Валовой  Общественный продукт,65,74,63,42,36,43
2,Продукция  промышленности,86,85,74,44,37,49
3,Валовая  продукция сельского хозяйства,22,39,25,17,10,53
4,Производительность  общественного труда,61,68,45,33,31,38
