,0,1,2
0,Статья,2017,2016
1,Выручка,4 500,3 500
2,Себестоимость,(3600),(2700)
3,Валовая:,,
4,- прибыль,900,800
5,- убыток,,
6,Коммерческие расходы,-157,-126
7,Административные расходы,-318,-309
8,Финансовый результат от продаж:,,
9,- прибыль,425,365
10,- убыток,,
11,Доходы от участия в иных организациях,18,9
12,Доходы от участия в капитале,22,11
13,Расходы от участия в капитале,-6,-7
14,Прочие доходы,32,27
15,Прочие расходы,-31,-20
16,Другие затраты,,
17,Финансовый результат до налогообложения:,,
18,- прибыль,460,385
19,- убыток,,
20,ОНА,10,
21,ОНО,,
22,Расходы (доходы) по НПП,-140,(185)
23,Чистый доход:,,
24,- прибыль,330,200
25,- убыток,,
