,0,1,2,3,4,5,6,7
0,Факторы,Оценка экспертов (степень влияния) от 1 до 5,Средняя оценка,Вес,,,,
1,,1 эксперт,2 эксперт,3 эксперт,4 эксперт,5 эксперт,,
2,1. ПОЛИТИЧЕСКИЕ,,,,,,,
3,Поддержка малого бизнеса местными органами власти,2,3,2,3,2,24.0,3.0
4,Коррупция в регионе,3,3,4,2,3,3.0,4.0
5,Деятельность налоговой инспекции,2,2,2,1,1,16.0,2.0
6,Качество работы силовых структур,4,3,3,3,4,34.0,5.0
7,Организованная преступность,3,2,4,3,3,3.0,4.0
8,2. ЭКОНОМИЧЕСКИЕ,,,,,,,
9,Спрос на технику,4,5,4,4,4,42.0,6.0
10,Ставки аренды,3,4,4,3,5,38.0,6.0
11,Уровень зарплат,2,3,3,2,3,26.0,4.0
12,Уровень конкуренции,3,4,4,4,3,36.0,5.0
13,Розничные кредиты,5,4,4,3,4,4.0,6.0
14,3. СОЦИАЛЬНЫЕ,,,,,,,
15,Уровень доходов населения,5,5,4,4,5,46.0,7.0
16,Показное потребление,3,4,4,3,4,36.0,5.0
17,Демографический состав населения,3,4,5,3,4,38.0,6.0
18,Развитие СМИ (охват),4,4,3,5,4,4.0,6.0
19,Предпочтения западных/местных брендов,2,3,3,3,3,28.0,4.0
20,4. ТЕХНОЛОГИЧЕСКИЕ,,,,,,,
21,Наличие сервисных центров,4,3,3,4,4,36.0,5.0
22,Наличие профессиональных продавцов техники,5,4,5,5,5,48.0,7.0
23,Обеспеченность техникой (шт./на семью),3,4,3,4,4,36.0,5.0
24,Качество электрических сетей,3,2,3,4,3,3.0,4.0
25,Транспортные компании,3,4,4,4,3,36.0,5.0
26,ИТОГО,,,,,,69.0,
