,0,1,2
0,Наименование  показателя,За отчетный  период,За аналогичный  период предыду-  щего года
1,Доходы и  расходы по обычным видам деятельности,,
2,"Выручка (нетто)  от продажи товаров, продукции, работ,  услуг (за минусом налога на добавленную  стоимость, акцизов и аналогичных  обязательных платежей)",1380601,1021477
3,"Себестоимость  проданных товаров, продукции, работ,  услуг",1322027,982596
4,Валовая прибыль,58574,38881
5,Коммерческие  расходы,49539,35674
6,Управленческие  расходы,0,0
7,Прибыль (убыток)  от продаж,9035,3207
8,Прочие доходы  и расходы,,
9,Проценты к  получению,13,25
10,Проценты к  уплате,16644,6442
11,Доходы от участия  в других организациях,0,0
12,Прочие операционные  доходы,3710,4283
13,Прочие операционные  расходы,4185,4831
14,Внереализационные  доходы,12073,9183
15,Внереализационные  расходы,1429,1619
16,Прибыль  (убыток) до налогообложения,2573,3906
17,Отложенные  налоговые активы,0,0
18,Отложенные  налоговые обязательства,36,90
19,Текущий  налог на прибыль,912,1136
20,Чистая  прибыль (убыток) отчетного периода,1625,2680
21,СПРАВОЧНО  Постоянные  налоговые обязательства (активы),331,289
22,Базовая  прибыль (убыток) на акцию,0,0
23,Разводненная  прибыль (убыток) на акцию,0,0
