,0,1,2,3,4
0,"Критерии, основания  классификации",Виды объективных  законов,Область и характер  действия,,
1,"По области  действия, (общности закона)",Всеобщие  (Универсальные),"В  неживой природе,  в  обществе и  в мышлении",,
2,Общие  (Особенные),"В  неживой природе,  или  в обществе,  или в мышлении",,,
3,Специфические  (Частные),"В определенной  области природы, общества, мышления",,,
4,По длительности  действия,Вечные,"Законы диалектики,  механики, логики и другие",,
5,Исторически  продолжительные,"Законы развития  биологических, социальных, кибернетических  и других систем реального мира",,,
6,Исторически  ограниченные,"Законы товарного  производства, развития антагонистических  формаций и другие",,,
7,По характеру  связи с внешними факторами системы,Развития,"Законы диалектики  природы, естественного отбора  биологических видов, физиологии высшей  нервной деятельности человека,  социального развития и другие",,Область  и характер действия
8,Структуры,Отражают внутреннее  строение системы в конкретных условиях,,,
9,"По способу  проявления, степени детерминированности  процесса",Динамические  (каузальные и функциональные),"Устанавливают  строго детерминированную  причинно-следственную зависимость,  а также вариативность элементов и  процессов в механических, физических,  химических, биологических, физиологических,  социальных и иных системах",,
10,Статические  (стохастические),"Законы теории  вероятности и математической статистики,  закономерности состояния термодинамических,  социальных, информационных и других  систем с трудноучитываемым количеством  степеней свободы",,,
11,По степени  эмпирического подтверждения  теоретических алгоритмов поведения  системы,Признанные наукой объективные законы (по определению  этого понятия),"Законы реального  мира, имеющие неоднократное эмпирическое  подтверждение практикой их реализации.",,
12,Модельные законы  (идеальных состояний системы) носят  субъективный характер,"Аксиоматика  технических, естественных и общественных  наук. Бесконечность форм существования  материи. Законы поведения абсолютно  твердого, абсолютно холодного тела.  Совершенная конкуренция, чистый рынок.  Общество социального равенства.  Некоторые правовые и иные нормы  идеальных состояний системы.",,,
