,0,1,2
0,Искусственный интеллект,,
1,Философия,Тест Тьюринга • Китайская комната • Сильный и слабый искусственные интеллекты,Портал
2,Направления,Агентный подход • Адаптивное управление • Инженерия знаний • Модель жизнеспособной системы • Машинное обучение • Нейронные сети • Нечёткая логика • Обработка естественного языка • Распознавание образов • Роевой интеллект • Символический ИИ • Эволюционные алгоритмы • Экспертная система,
3,Применение,Голосовое управление • Задача классификации • Классификация документов • Кластеризация документов • Кластерный анализ • Локальный поиск • Машинный перевод • Оптическое распознавание символов • Распознавание речи • Распознавание рукописного ввода • Игровой ИИ,
4,Исследователи,Чарлз Бэббидж • Владимир Вапник • Джозеф Вейценбаум • Норберт Винер • Виктор Глушков • Владимир Городецкий • Ян ЛеКун • Алексей Ляпунов • Джон Маккарти • Марвин Мински • Аллен Ньюэлл • Сеймур Пейперт • Джуда Перл • Гермоген Поспелов • Дмитрий Поспелов • Фрэнк Розенблатт • Герберт Саймон • Алан Тьюринг • Патрик Уинстон • Виктор Финн • Сергей Фомин • Демис Хассабис •  Джеффри Хинтон • Ноам Хомский • Клод Шеннон • Эндрю Ын Элиезер Юдковский,
