,0,1
0,Инженерия знаний,
1,Общие понятия,Данные Метаданные Знания Метазнания Представление знаний База знаний Онтология Семантическая паутина
2,Жёсткие модели,Продукции Семантические сети Фреймы Логическая модель
3,Мягкие методы,Нейросети Эволюционное моделирование Нечёткая логика
4,Применения,Экспертные системы Интеллектуальный анализ данных Извлечение информации Виртуальные собеседники Гибридные интеллектуальные системы
5,Искусственный интеллект Машинное обучение Обработка естественного языка,
