,0,1,2,3,4,5,6,7,8,9,10,11,12,13
0,,,"<!-- google_ad_client = ""pub-2942497740809962""; /* 120x90, создано 16.03.09 */ google_ad_slot = ""9462374421""; google_ad_width = 120; google_ad_height = 90; //-->",,,,,,,,,"<!-- google_ad_client = ""pub-2942497740809962""; /* 120x90, создано 16.03.09 */ google_ad_slot = ""9462374421""; google_ad_width = 120; google_ad_height = 90; //-->",,
1,,,,,,,,,,,,,,
2,,,,,,,,,,,,,,
3,,,,,,,,,,,,,,
4,,,,,,,,,,,,,,
5,"<!-- google_ad_client = ""pub-2942497740809962""; /* 120x90, создано 16.03.09 */ google_ad_slot = ""9462374421""; google_ad_width = 120; google_ad_height = 90; //-->",,,,,,,,,,,,,
