,0,1,2,3,4,5,6
0,Показатель,2016,2017,Динамика,,,
1,Сумма,%,Сумма,%,Сумма,%,
2,1. Прибыль от реализации,365,9480,425,9240,60,-24
3,2. Прибыль от иной деятельности,20,520,35,760,15,24
4,3. Прибыль до налогообложения,385,10000,460,10000,75,-
