,0,1,2,3
0,НАИМЕНОВАНИЕ МОДЕЛЕЙ ОДЕЖДЫ,«КОНСТРУИРОВАНИЕ» базовый размер,«ГРАДАЦИЯ» Размножение,
1,ЖЕНСКАЯ ОДЕЖДА,,,
2,ПАЛЬТО,демисезонное,7000,750.0
3,облегченное,6500,700,
4,ПЛАЩ,на подкладке,6800,650.0
5,без подкладки,5700,500,
6,ПОНЧО,5450,540,
7,КУРТКА,на подкладке,6000,600.0
8,без подкладки,5100,510,
9,ЖАКЕТ,на подкладке,5900,540.0
10,без подкладки,5100,400,
11,с коротким рукавом,4950,440,
12,болеро,3900,390,
13,ЖИЛЕТ,на подкладке,3200,390.0
14,без подкладки,2700,340,
15,ТОЛСТОВКА,3300,450,
16,БЛУЗА,классическая,3900,420.0
17,с коротким рукавом,3400,410,
18,без рукава,2800,370,
19,блуза-рубашка,4100,430,
20,трикотажная,2500,350,
21,ФУТБОЛКА,2500,350,
22,ТУНИКА,2100,320,
23,САРАФАН классика,3800,420,
24,ПЛАТЬЕ,классическое,5800,520.0
25,платье без подкладки,5100,500,
26,с коротким рукавом,5500,520,
27,БРЮКИ,классические,4300,450.0
28,трикотажные,2530,350,
29,бриджи,3850,400,
30,ЮБКА,классическая,3100,320.0
31,в пол,3400,340,
32,с клиньями,3300,330,
33,ШОРТЫ,классические,2700,300.0
