,0,1,2,3,4
0,По годам,Всего,Республиканский бюджет,Местный бюджет,"Другие источники (ФСМС, НФ)"
1,2016 г.,128 034 799,92 389 291,34 945 508,700 000
2,2017 г.,408 080 865,69 309 875,19 035 944,319 735 046
3,2018 г.,709 797 105,46 769 024,2 244 785,660 783 296
4,2019 г.,723 816 732,46 701 636,2 259 174,674 855 922
5,Итого:,1 969 729 500,255 169 825,58 485 411,1 656 074 264
