,0,1,2,3,4,5,6
0,Показатель,2016,2017,Динамика,,,
1,"Сумма, млн руб.",%,"Сумма, млн руб.",%,"Сумма, млн руб.",%,
2,1. Выручка,35,100,45,100,1,-
3,2 Себестоимость,27,7710,36,800,09,290
4,3. Управленческие затраты,0309,880,0318,710,0009,-170
5,4. Коммерческие затраты,0126,360,0157,350,0031,-010
6,5. Доход от продаж,0365,1040,0425,940,006,-100
