,№,Экологические условия,Исполнители,Срок исполнения,"Объем финансирования, тыс. руб"
0,№,Экологические условия,Исполнители,Срок исполнения,"Объем финансирования, тыс. руб"
1,1.1,Разработать проект строительства установок по  очистке факельного газа от сероводорода,ПКО «Каустик»,IV кв. 1998г.,50
2,1.2,Провести исследования по разработке способа  обезвреживания газовых выбросов винилхлорида и дихлорэтана,"Гипросинтез, г. Волгоград",IV кв. 1998г.,25
3,1.3,Провести исследования по разработке способа обезвреживания  кубовых ректификации винилхлорида,"Гипросинтез, г. Волгоград",IV кв. 1998г.,50
4,1.4,Провести исследования по разработке способа  утилизации отработанной серной кислоты,"Гипросинтез, г. Волгоград",IV кв. 1998г.,50
5,1.5,Разработать способ по рекуперации сажесмоляной  пульпы,НГГУ,IV кв. 1998г.,20
6,1.6,Разработать проект по строительству установки для  переработки сулемового катализатора,ПКО «Каустик»,IV кв. 1998 г.,50
7,1.7,"Получить сертификат Госстандарта России на качество  серы, образующейся при очистке топливного газа",АО «Пласткард»,III кв.  1999г.,50
8,1.8,Предусмотреть меры по изоляции трубопровода  факельного газа,АО «Пласткард»,IV кв. 1998 г.,30
9,1.9,Разработать способ утилизации нового катализатора  из реакторов хлорирования,НГГУ,IV кв. 1998г.,50
10,1.10,"Откорректировать тома ПДВ, ПДС",АО «Пласткард»,IV кв. 1999г.,30
