,0,1,2,3,4,5,6
0,пункты отправления,пункты назначения,запасы,,,,
1,B1,B2,B3,B4,B5,,
2,A1,30,24,11,12,25.0,21.0
3,A2,26,4,29,20,24.0,19.0
4,A3,27,14,14,10,18.0,15.0
5,A4,6,14,28,8,2.0,25.0
6,потребности,15,15,15,15,20.0,
