,0,1,2
0,,,
1,Метод оценки,Цели,Примеры
2,Анализ записей,Проверка квалификации аудитора,"Анализ записей об образовании, обучении, производственном опыте и опыте по аудиту"
3,Обратная связь,"Обеспечивает информацией о том, как воспринимается деятельность аудитора","Инспектирование деятельности, опросы, резюме, рекомендации, жалобы, оценка деятельности, отзывы коллег"
4,Собеседование,"Оценка личных качеств и коммуникационных навыков, проверка информации и знаний по тестам и получение дополнительной информации",Персональное собеседование
5,Наблюдение,Оценка личных качеств и способности применения знаний и навыков,"Ролевые игры, наблюдения в процессе аудита, деятельность на рабочем месте"
6,Тестирование,"Оценка личных качеств, знаний, навыков и их применение","Устные и письменные экзамены, психометрическое тестирование"
7,Анализ деятельности после аудита,"Получение информации о работе аудитора во время выполнения действий по аудиту, определение его сильных сторон и недостатков","Анализ отчета по аудиту, опросы и обсуждение с руководителем группы по аудиту, членами группы по аудиту и, при необходимости, использование обратной связи для получения информации от проверяемой организации"
