,0,1
0,Перечень дополнительных услуг,
1,Передача лекал в электронном виде,500руб/комплект из 7 размеров
2,Печать лекал на широкоформатном плоттере на бумаге  (плотность 80г/кв.м),150руб/метр
3,Спецификация деталей кроя,от 250руб
4,Табель мер,от 700руб
5,Раскладка в формате А 4,350руб
6,Технологическая последовательность,от 2500руб
7,Ордер,от 1500руб
8,Образец,40% от стоимости комплекта лекал
9,Макет,от 500руб
