,0,1
0,Создание хранилища данных,
1,Понятия,База данных Измерение (хранилище данных) (англ.) Модель измерений (англ.) Факт OLAP Схема звезды Схема снежинки
2,Варианты,Якорная модель Таблица измерений Data Vault (англ.) HOLAP MOLAP ROLAP Операционное хранилище (англ.)
3,Элементы,Словарь данных Метаданные Витрина данных Шестая нормальная форма Суррогатный ключ
4,Факты,Таблица фактов Ранний факт (англ.) Мера (хранилище данных) (англ.)
5,Измерение,Таблица измерений Вырожденное измерение (англ.) Стабильное измерение (англ.)
6,Заполнение,ETL Извлечение данных (англ.) Трансформация данных (англ.)
