,0,1,2
0,Показатели,Изменение,Влияние («+» - положительное влияние / «–» - негативное влияние)
1,Платежеспособность,Рост,«+»: рост финансовой устойчивости  «–»: снижение оборачиваемости
2,Снижение,«+»: рост оборачиваемости  «–»: снижение финансовой устойчивости,
3,Финансовая устойчивость,Рост,«+»: рост платежеспособности  «–»: снижение рентабельности
4,Снижение,«+»: рост рентабельности  «–»: снижение платежеспособности,
5,Оборачиваемость,Рост,"«+»: рост финансовой устойчивости, рост рентабельности  «–»: снижение платежеспособности"
6,Снижение,"«+»: рост платежеспособности  «–»: снижение финансовой устойчивости, снижение рентабельности",
7,Рентабельность,Рост,«+»: рост оборачиваемости  «–»: снижение финансовой устойчивости
8,Снижение,«+»: рост финансовой устойчивости  «–»: снижение оборачиваемости,
