,0,1
0,Использование хранилища данных,
1,Понятия,Business Intelligence Панель индикаторов Data mining DSS OLAP-куб
2,Языки,Data Mining Extensions (англ.) MDX XMLA (англ.)
3,Инструменты,Инструменты бизнес-аналитики (англ.) Генератор отчётов Электронная таблица
