,0,1,2,3,4,5,6,7,8,9,10
0,№ п/п,Показатели результатов,ед. изм.,Источники информации,Ответственные за исполнение,2014 (факт),2015 (оценка),2016,2017,2018,2019
1,1,2,3,4,5,6,7,8,9,10,11
2,1,Количество ДТП с пострадавшими,абс.,Ведомственная статистическая отчетность МВД,"МВД, акиматы городов Алматы и Астаны, областей",20378,19970,19570,19178,18794,18418
3,2,"Смертность от травм, несчастных случаев и отравлений",на 100 000 нас.,Ведомственная статистическая отчетность МЗСР,"МЗСР, МВД, МОН, акиматы городов Алматы и Астаны, областей",878,875,849,823,798,775
4,3,Уровень суицидов среди детей от 15-17 лет,на 100 000 нас.,Официальные данные Комитета по статистике МНЭ,"МОН, МВД, МЗСР",193,174,172,170,169,167
5,4,"Распространенность ВИЧ-инфекции в возрастной группе 15-49 лет в пределах 0,2-0,6%",%,Ведомственная статистическая отчетность МЗСР,"МЗСР, МНЭ, акиматы, городов Алматы и Астаны, областей",0168,021,26,33,41,51
6,5,"Заболеваемость инфекциями, передаваемыми половым путем (далее -ИППП), среди детей в возрасте 15-17 лет (маркер - сифилис)",на 100 000 нас.,Ведомственная статистическая отчетность МЗСР,"МЗСР, МОН, акиматы городов Алматы и Астаны, областей",69,65,62,59,56,53
7,6,Заболеваемость туберкулезом,на 100 000 нас.,Ведомственная статистическая отчетность МЗСР,"МЗСР, МНЭ, акиматы городов Алматы и Астаны, областей",664,647,631,615,599,570
8,7,Заболеваемость туберкулезом среди осужденных,на 100 000 осужденных,Ведомственная статистическая отчетность МВД,МВД,7990,7900,7800,7700,7600,7500
9,8,"Удержание показателя заболеваемости инфекционными и паразитарными заболеваниями на уровне не более 315,9",на 100 000 нас.,Ведомственная статистическая отчетность МНЭ,"МНЭ, МЗСР, акиматы городов Алматы и Астаны, областей",2956,3159,3159,3159,3159,3159
10,9,"Охват граждан, занимающихся физической культурой и спортом",%,Ведомственная статистическая отчетность МКС,"МКС, МЗСР, акиматы городов Алматы и Астаны, областей",251,260,270,280,290,300
11,10,"Охват детей и подростков, занимающихся физической культурой и спортом на базе детско-юношеских спортивных школ",%,Ведомственная статистическая отчетность МКС,"МКС, МОН, МЗСР, акиматы городов Алматы и Астаны, областей",130,135,140,145,150,151
12,11,Распространенность ожирения,на 100 000 нас.,Ведомственная статистическая отчетность МЗСР,"МЗСР, акиматы городов Алматы и Астаны, областей",2783,2700,2565,2436,2314,2200
13,12,"Доля общеобразовательных учреждений, реализующих программы по профилактике наркомании и поведенческих болезней",%,Ведомственная статистическая отчетность МОН,"МОН, МЗСР, акиматы городов Алматы и Астаны, областей",500,640,780,850,900,1000
14,13,"Количество лиц, состоящих на наркологическом учете с пагубным потреблением и зависимостью от наркотиков",на 100 000 нас.,Ведомственная статистическая отчетность МЗСР,"МЗСР, МВД",1943,1930,1920,1910,1900,1890
