,0,1,2,3,4,5,6,7,8,9,10
0,№ п/п,Целевой индикатор,ед. изм.,Источники информации,Ответственные за исполнение,2014 (факт),2015 (оценка),2016,2017,2018,2019
1,1,Уровень удовлетворенности населения качеством медицинской помощи,%,Данные социологического опроса населения (по усовершенствованной методике),МЗСР,-,-,40,42,44,46
