,0,1,2,3,4
0,№ пп,Номер проекта,Название,Руководитель,Годы
1,1,14-04-00082 А,Разработка клеточных технологий для создания клеточно-наполненных сосудистых трансплантатов,Иванова Л.Н.,2014–2016
2,2,14-04-00170 A,Роль гена Kaiso в эпигенетической регуляции серотониновой системы мозга и контролируемого серотонином поведения у мышей,Куликов А.В.,2014–2016
3,3,14-04-00219 А,Изменения транскриптома и уровня ключевых метаболитов после активации GABAa рецепторов в развивающемся головном мозге.,Меньшанов П.Н.,2014–2016
4,4,14-04-00086 А,"Сравнительный анализ пространственной организации В-хромосом двух видов лесных мышей (Sylvaemus flavicollis, Apodemus peninsulae) и саранчовых (Podisma sapporensis, Eyprepocnemis plorans)",Карамышева Т.В,2014–2016
5,5,14-04-01707 А,Изучение влияния хронического социального стресса на пространственную организацию транскрипционно-активного хроматина методом ChIA-PET,Брызгалов Л.О.,2014–2016
6,6,14-04-00669 А,Исследование влияния экзогенного лептина на молекулярно-физиологические показатели обмена энергии при развитии диабета 2 типа у Ау мышей,Бажан Н.М,2014–2016
7,7,14-04-01126 А,Изучение эволюции геномов видов рода Chironomus c использованием молекулярных маркеров на основе ядерной и митохондриальной ДНК,Голыгина В.В.,2014–2016
8,8,14-04-00453 А,Внутри и межвидовая изменчивость реакций организма на наноразмерные аэрозоли,Мошкин М.П.,2014–2016
9,9,14-04-01498 А,Функциональная и эволюционная характеристика ретровирусов растений,Блинов А.Г.,2014–2016
10,10,14-06-00180 А,Южная Сибирь или Меланезия родина Денисовского человека,Губина М.А.,2014–2016
11,11,14-04-00173 А,"Влияние длительного космического полета на экспрессию генов, контролирующих серотониновую систему и нейротрофический фактор мозга BDNF (Brain Derived Neurotrophic Factor): сравнение с экспериментальной моделью невесомости",Попова Н.К.,2014–2016
12,12,14-04-00297 А,Вклад мобильных элементов в реорганизацию хромосомы 5В в процессе эволюции аллополиплоидных пшениц,Салина Е.А.,2014–2016
13,13,14-04-00485 А,Поиск функционально значимых полиморфизмов ТАТА-боксов промоторов генов человека и их комплексное экспериментальное изучение,Пономаренко М.П,2014–2016
14,14,14-04-00710 А,Профиль инактивации транскрипции Х-хромосомы и роль гена Xist при импринтированной инактивации у грызунов,Шевченко А.И.,2014–2016
15,15,14-04-01906 А,Компьютерно-экспериментальный анализ молекулярных механизмов регуляции экспрессии генов в клетках опухолей головного мозга,Орлов Ю.Л.,2014–2016
16,16,14-04-00422 А,"Гиперкинетический полюс кататонии как проявление дестабилизации центральных, вегетативных и соматических систем организма: экспериментальное исследование на селекционных моделях крыс с кататоническим типом реагирования",Алехина Т.А.,2014–2016
17,17,14-04-00641 А,"Поиск общих генетических факторов, связанных с предрасположенностью человека к заболеваниям, вызываемым различными флавивирусами",Ромащенко А.Г.,2014–2016
18,18,14-04-00126 А,"Поиск редких генетических вариантов, контролирующих обмен липидов, с помощью секвенирования экзома.",Аксенович Т.И.,2014–2016
19,19,04-00132 А,Модификация поведенческой устойчивости к эмоциональному стрессу путем воздействия на экспрессию анти-апоптозного белка в мозге.,Дыгало Н.Н.,2014–2016
20,20,14-04-00694 А,Изучение механизмов программирующего действия лептина в пренатальный период развития у мышей,Макарова Е.Н.,2014–2016
21,21,14-04-00929 А,Изучение молекулярно-генетических механизмов нарушения развития гонад при РМ гибридном дисгенезе у Drosophila melanogaster,Дорогова Н.В.,2014–2016
22,22,14-04-01036 А,Молекулярно-генетический контроль устойчивости растений к Agrobacterium tumefaciens,Шумный В.К.,2014–2016
23,23,14-04-00448 А,"Закономерности межгеномных замещений и транслокаций у пшенично-чужеродных линий и их использование для изучения признаков, определяющих адаптацию и устойчивость к стрессам",Ефремова Т.Т.,2014–2016
24,24,14-04-00992 А,Цитомиксис в микроспорогенезе табака: исследование судьбы мигрирующего хроматина,Дейнеко Е.В.,2014–2016
25,25,14-04-00078 А,Высоко разрешающая диагностика хромосомных патологий человека .,Рубцов Н.Б,2014–2016
26,26,14-04-00376 А,Анализ вклада изменений экспрессии альфа-кристаллинов в развитие возрастной макулярной дегенерации,Муралёва Н.А.,2014–2016
27,27,14-04-01196 А,Исследование механизмов онколитического действия природных штаммов вируса болезни Ньюкасла.,Губанова Н.В.,2014–2016
28,28,14-04-01121 А,Филогеография комплекса Eisenia nordenskioldi (Lumbricidae) в Северной Евразии,Шеховцов С.В.,2014–2016
29,29,14-04-01284 А,Построение модели и предсказание эффективности трансляции мРНК млекопитающих по ее первичной последовательности на основе данных по рибосомному профилированию.,Волкова О.А.,2014–2016
30,30,14-04-00674 А,Влияние изменчивости ядерных и органельных геномов на преодоление ядерно-цитоплазматической несовместимости при интрогрессивной гибридизации и поддержание стабильности ядерно-цитоплазматических взаимодействий у аллоплазматических рекомбинантных и интрогрессивных линий мягкой пшеницы в зависимости от происхождения цитоплазмы.,Першина Л.А.,2014–2016
31,31,14-04-90000,"Идентификация генетических факторов, определяющих хозяйственно важные признаки у линий мягкой пшеницы (T.aestivum L.) с интрогрессией генетического материала тетраплоидных видов рода Triticum",Леонова,2014 2015
32,32,14-04-90010,Сравнительный анализ вклада мутаций гена GJB2 в возникновение нейросенсорной тугоухости у жителей Беларуси и ряда регионов Сибири (Россия),Посух О.Л.,2014– 2015
33,33,14-04-90414,Изучение формирования и функционирования цитомиктических каналов в вегетативных и генеративных клетках растений,Дейнеко Е.В.,2014–2016
