,0,1,2,3
0,1. Востриков Анатолий Алексеевич,Председатель ПК,т.сл. 330-80-94,"вн.: 4-48, 5-87, 3-58к.: 226"
1,2. Дубов Дмитрий Юрьевич,"Заместитель ПК, председатель научно-производственной комиссии",т.сл. 330-67-67,"вн.: 5-03, 5-87 к.: 212"
2,3. Горбунов Евгений Викторович,"Заместитель председателя ПК,председатель культурно-массовой комиссии и комиссии информационного обеспечения",т.сл. 316-55-45,вн.: 5-09к.: 113э
3,4. Олейникова Лидия Ивановна,Казначей ПК Организационные вопросы,т.сл. 335-62-82,вн.: 3-28к.: 320
4,5. Тимофеева Татьяна Владимировна,"Секретарь ПК, председатель детской комиссии",т.сл 336-07-06,вн.: 3-39к.: 237
5,6. Шаров Константин Александрович,Председатель жилищной комиссии,т.сл. 316-53-35,"вн.: 5-75, 5-10к.: 319э"
6,7. Мальцев Василий Анатольевич,Научно-производственная комиссия,т.сл. 333-10-95,"вн.: 4-28, 4-84к.: 7Вц"
7,8. Антонова Ольга Михайловна,Председатель комиссии социального страхования,т.сл. 336-06-59,"вн.: 3-16к.: 334, по вторникам и четвергам после 16.00"
8,9. Деменков Андрей Геннадьевич,Комиссия социального страхования,т.сл. 330-81-28,"вн.: 3-83, 3-56к.: 217"
9,10. Дехтярь Руслан Анатольевич,Председатель комиссии по ОТ и ТБ,т.сл. 316-50-46,вн.: 5-76к.: 101э
10,11. Алексеев Максим Валерьевич,Председатель молодежной комиссии,т.сл. 316-55-47,"вн.: 4-27, 5-13, 4-00к.: 111э, 123э, 25п"
11,12. Тимошенко Николай Иванович,Научно-производственная комиссия,т.сл. 330-80-18,"вн.: 4-47, 5-17к.:104, 209-э"
12,13. Шестаков Максим Владимирович,председатель спортивной комиссии,т.сл. 332-56-78,вн.: 4-06 к.: 314
