,0,1,2
0,"Приоритетное направление Актуальные проблемы физики конденсированных сред, в том числе квантовой макрофизики, мезоскопики, физики наноструктур, спинтроники, сверхпроводимости.",,
1,,"Программа Комплексная нанодиагностика систем пониженной размерности, нанолитография и нанометрология.",
2,,,"ПроектМультиспектральный анализ систем пониженной размерности, лазерная нанолитография и нанометрология асферических поверхностей. Научный руководитель д.т.н. Потатуркин О.И."
3,"Приоритетное направление Актуальные проблемы оптики и лазерной физики, в том числе достижение предельных концентраций мощности и энергии во времени, пространстве и спектральном диапазоне, освоение новых диапазонов спектра, спектроскопия сверхвысокого разрешения и стандарты частоты, прецизионные оптические измерения, проблемы квантовой и атомной оптики, взаимодействие излучения с веществом.",,
4,,"Программа Современные проблемы физики сверхсильных световых полей, спектроскопии сверхвысокого разрешения. Стандарты частоты, прецизионные оптические измерения, проблемы квантовой и атомной оптики.",
5,,Проект Современные лазерные интерференционные методы глубиной микромодификации гибридных материалов и прецизионных оптических измерений. Научный руководитель д.т.н. Твердохлеб П.Е.,
6,,Программа Фундаментальные проблемы взаимодействия излучения с веществом.,
7,,,"Проект Когерентные и нелинейные эффекты при взаимодействии излучения с атомами и молекулами в особых условиях (высокие давления, сверхглубокое охлаждение, состояние с когерентным пленением населенностей). Научный руководитель чл.-к. РАН Шалагин А.М. Проект Исследование взаимодействия света с микро- и наноструктурами в оптическом волокне. Научный руководитель д.ф.-м.н. Бабин С.А. Проект Исследование динамики световых структур в волоконных лазерах с пассивной синхронизацией мод и фоторефрактивных системах. Научный руководитель д.ф.-м.н. Комаров К.П. Проект Исследование спектроскопических проявлений взаимодействия излучения с наноструктурированными материалами (гигантское комбинационное рассеяние света, диэлектрическая спектроскопия, сенсорные свойства). Научный руководитель д.ф.-м.н. Малиновский В.К. Проект Разработка и исследование адаптивных методов лазерно-индуцированной локальной модификации структуры аморфных пленок и твердых сред для синтеза дифракционных структур микро- и нанооптики, элементов электроники и микромеханики. Научные руководители: д.т.н. Полещук А.Г. и к.т.н. Бессмельцев В.П."
8,"Приоритетное направление Системы автоматизации, CALS-технологии, математические модели и методы исследования сложных управляющих систем и процессов.",,
9,,Программа Теоретические основы и методы информационных и вычислительных технологий проектирования и принятия решений.,
10,,,"Проект Математические модели и технология построения интегрированных программно-аппаратных комплексов восприятия, анализа и отображения многопотоковых данных, управления динамическими системами и принятия решений. Научный руководитель д.т.н. Киричук В.С."
11,Приоритетное направление Проблемы создания глобальных и интегрированных информационно-телекоммуникационных систем и сетей. Развитие технологий GRID.,,
12,,"Программа Новые ГИС и веб-технологии, включая методы искусственного интеллекта, для поддержки междисциплинарных научных исследований сложных природных, технических и социальных систем с учетом их взаимодействия.",
13,,,"ПроектМетоды, системные решения и программно-аппаратные средства интеллектуальной обработки последовательности пространственных данных в задачах дистанционной диагностики динамических процессов при комплексном исследовании сложных природных и технических систем. Научный руководитель д.т.н. Потатуркин О.И."
