,0,1,2,3
0,Ф.И.О.,Должность,"Ученая степень, звание",Эл. почта
1,Букин Сергей Викторович,"ведущий инженер, аспирант",,
2,Захаренко Александра Сергеевна,главный специалист по микробиологии,,zakharenko@lin.irk.ru
3,Земская Екатерина Андреевна,техник,,
4,Земская Тамара Ивановна,зав. лабораторией,д.б.н.,tzema@lin.irk.ru
5,Ломакина Анна Владимировна,старший научный сотрудник,к.б.н.,lomakina@lin.irk.ru
6,Павлова Ольга Николаевна,старший научный сотрудник,к.б.н.,pavlova@lin.irk.ru
7,Степаненко Ангелина Сергеевна,главный специалист по микробиологии,,
8,Хальзов Иван Андреевич,"техник, студент",,i_halz@lin.irk.ru
9,Ханаева Татьяна Анатольевна,научный сотрудник,,tkhan@lin.irk.ru
10,Черницына Светлана Михайловна,научный сотрудник,к.б.н.,sveta@lin.irk.ru
11,Шубенкова Ольга Владимировна,научный сотрудник,к.б.н.,olya@lin.irk.ru
